[
	{
		"id" : 1,
		"destination" : "Jakarta",
		"pricePerKg" : 9000,
		"duration" : "1-2"
	},
	{
		"id" : 2,
		"destination" : "Bandung",
		"pricePerKg" : 10000,
		"duration" : "1-2"
	},
	{
		"id" : 3,
		"destination" : "Medan",
		"pricePerKg" : 27000,
		"duration" : "1-2"
	},
	{
		"id" : 4,
		"destination" : "Bogor",
		"pricePerKg" : 8000,
		"duration" : "1-2"
	}
]